^C:\USERS\DYNAMITOS5\DOCUMENTS\CUDA\MAGIC THE HACKENING\GAMEENGINE\CAM.CPP
/c /ZI /nologo /W3 /WX- /sdl /Od /D _MBCS /D _CRT_SECURE_NO_WARNINGS /D _MBCS /Gm /EHsc /RTC1 /MDd /GS /fp:precise /Zc:wchar_t /Zc:forScope /Zc:inline /Fo"X64\DEBUG\\" /Fd"X64\DEBUG\VC140.PDB" /Gd /TP C:\USERS\DYNAMITOS5\DOCUMENTS\CUDA\MAGIC THE HACKENING\GAMEENGINE\CAM.CPP
^C:\USERS\DYNAMITOS5\DOCUMENTS\CUDA\MAGIC THE HACKENING\GAMEENGINE\DATA.CPP
/c /ZI /nologo /W3 /WX- /sdl /Od /D _MBCS /D _CRT_SECURE_NO_WARNINGS /D _MBCS /Gm /EHsc /RTC1 /MDd /GS /fp:precise /Zc:wchar_t /Zc:forScope /Zc:inline /Fo"X64\DEBUG\\" /Fd"X64\DEBUG\VC140.PDB" /Gd /TP C:\USERS\DYNAMITOS5\DOCUMENTS\CUDA\MAGIC THE HACKENING\GAMEENGINE\DATA.CPP
^C:\USERS\DYNAMITOS5\DOCUMENTS\CUDA\MAGIC THE HACKENING\GAMEENGINE\ENTITY.CPP
/c /ZI /nologo /W3 /WX- /sdl /Od /D _MBCS /D _CRT_SECURE_NO_WARNINGS /D _MBCS /Gm /EHsc /RTC1 /MDd /GS /fp:precise /Zc:wchar_t /Zc:forScope /Zc:inline /Fo"X64\DEBUG\\" /Fd"X64\DEBUG\VC140.PDB" /Gd /TP C:\USERS\DYNAMITOS5\DOCUMENTS\CUDA\MAGIC THE HACKENING\GAMEENGINE\ENTITY.CPP
^C:\USERS\DYNAMITOS5\DOCUMENTS\CUDA\MAGIC THE HACKENING\GAMEENGINE\ENTITYMOB.CPP
/c /ZI /nologo /W3 /WX- /sdl /Od /D _MBCS /D _CRT_SECURE_NO_WARNINGS /D _MBCS /Gm /EHsc /RTC1 /MDd /GS /fp:precise /Zc:wchar_t /Zc:forScope /Zc:inline /Fo"X64\DEBUG\\" /Fd"X64\DEBUG\VC140.PDB" /Gd /TP C:\USERS\DYNAMITOS5\DOCUMENTS\CUDA\MAGIC THE HACKENING\GAMEENGINE\ENTITYMOB.CPP
^C:\USERS\DYNAMITOS5\DOCUMENTS\CUDA\MAGIC THE HACKENING\GAMEENGINE\ENTITYRENDERER.CPP
/c /ZI /nologo /W3 /WX- /sdl /Od /D _MBCS /D _CRT_SECURE_NO_WARNINGS /D _MBCS /Gm /EHsc /RTC1 /MDd /GS /fp:precise /Zc:wchar_t /Zc:forScope /Zc:inline /Fo"X64\DEBUG\\" /Fd"X64\DEBUG\VC140.PDB" /Gd /TP C:\USERS\DYNAMITOS5\DOCUMENTS\CUDA\MAGIC THE HACKENING\GAMEENGINE\ENTITYRENDERER.CPP
^C:\USERS\DYNAMITOS5\DOCUMENTS\CUDA\MAGIC THE HACKENING\GAMEENGINE\ENTITYSHADER.CPP
/c /ZI /nologo /W3 /WX- /sdl /Od /D _MBCS /D _CRT_SECURE_NO_WARNINGS /D _MBCS /Gm /EHsc /RTC1 /MDd /GS /fp:precise /Zc:wchar_t /Zc:forScope /Zc:inline /Fo"X64\DEBUG\\" /Fd"X64\DEBUG\VC140.PDB" /Gd /TP C:\USERS\DYNAMITOS5\DOCUMENTS\CUDA\MAGIC THE HACKENING\GAMEENGINE\ENTITYSHADER.CPP
^C:\USERS\DYNAMITOS5\DOCUMENTS\CUDA\MAGIC THE HACKENING\GAMEENGINE\LOADER.CPP
/c /ZI /nologo /W3 /WX- /sdl /Od /D _MBCS /D _CRT_SECURE_NO_WARNINGS /D _MBCS /Gm /EHsc /RTC1 /MDd /GS /fp:precise /Zc:wchar_t /Zc:forScope /Zc:inline /Fo"X64\DEBUG\\" /Fd"X64\DEBUG\VC140.PDB" /Gd /TP C:\USERS\DYNAMITOS5\DOCUMENTS\CUDA\MAGIC THE HACKENING\GAMEENGINE\LOADER.CPP
^C:\USERS\DYNAMITOS5\DOCUMENTS\CUDA\MAGIC THE HACKENING\GAMEENGINE\MAIN.CPP
/c /ZI /nologo /W3 /WX- /sdl /Od /D _MBCS /D _CRT_SECURE_NO_WARNINGS /D _MBCS /Gm /EHsc /RTC1 /MDd /GS /fp:precise /Zc:wchar_t /Zc:forScope /Zc:inline /Fo"X64\DEBUG\\" /Fd"X64\DEBUG\VC140.PDB" /Gd /TP C:\USERS\DYNAMITOS5\DOCUMENTS\CUDA\MAGIC THE HACKENING\GAMEENGINE\MAIN.CPP
^C:\USERS\DYNAMITOS5\DOCUMENTS\CUDA\MAGIC THE HACKENING\GAMEENGINE\MODELTEX.CPP
/c /ZI /nologo /W3 /WX- /sdl /Od /D _MBCS /D _CRT_SECURE_NO_WARNINGS /D _MBCS /Gm /EHsc /RTC1 /MDd /GS /fp:precise /Zc:wchar_t /Zc:forScope /Zc:inline /Fo"X64\DEBUG\\" /Fd"X64\DEBUG\VC140.PDB" /Gd /TP C:\USERS\DYNAMITOS5\DOCUMENTS\CUDA\MAGIC THE HACKENING\GAMEENGINE\MODELTEX.CPP
^C:\USERS\DYNAMITOS5\DOCUMENTS\CUDA\MAGIC THE HACKENING\GAMEENGINE\PARTICLERENDERER.CPP
/c /ZI /nologo /W3 /WX- /sdl /Od /D _MBCS /D _CRT_SECURE_NO_WARNINGS /D _MBCS /Gm /EHsc /RTC1 /MDd /GS /fp:precise /Zc:wchar_t /Zc:forScope /Zc:inline /Fo"X64\DEBUG\\" /Fd"X64\DEBUG\VC140.PDB" /Gd /TP C:\USERS\DYNAMITOS5\DOCUMENTS\CUDA\MAGIC THE HACKENING\GAMEENGINE\PARTICLERENDERER.CPP
^C:\USERS\DYNAMITOS5\DOCUMENTS\CUDA\MAGIC THE HACKENING\GAMEENGINE\PARTICLESHADER.CPP
/c /ZI /nologo /W3 /WX- /sdl /Od /D _MBCS /D _CRT_SECURE_NO_WARNINGS /D _MBCS /Gm /EHsc /RTC1 /MDd /GS /fp:precise /Zc:wchar_t /Zc:forScope /Zc:inline /Fo"X64\DEBUG\\" /Fd"X64\DEBUG\VC140.PDB" /Gd /TP C:\USERS\DYNAMITOS5\DOCUMENTS\CUDA\MAGIC THE HACKENING\GAMEENGINE\PARTICLESHADER.CPP
^C:\USERS\DYNAMITOS5\DOCUMENTS\CUDA\MAGIC THE HACKENING\GAMEENGINE\PLAYER.CPP
/c /ZI /nologo /W3 /WX- /sdl /Od /D _MBCS /D _CRT_SECURE_NO_WARNINGS /D _MBCS /Gm /EHsc /RTC1 /MDd /GS /fp:precise /Zc:wchar_t /Zc:forScope /Zc:inline /Fo"X64\DEBUG\\" /Fd"X64\DEBUG\VC140.PDB" /Gd /TP C:\USERS\DYNAMITOS5\DOCUMENTS\CUDA\MAGIC THE HACKENING\GAMEENGINE\PLAYER.CPP
^C:\USERS\DYNAMITOS5\DOCUMENTS\CUDA\MAGIC THE HACKENING\GAMEENGINE\RAWMODEL.CPP
/c /ZI /nologo /W3 /WX- /sdl /Od /D _MBCS /D _CRT_SECURE_NO_WARNINGS /D _MBCS /Gm /EHsc /RTC1 /MDd /GS /fp:precise /Zc:wchar_t /Zc:forScope /Zc:inline /Fo"X64\DEBUG\\" /Fd"X64\DEBUG\VC140.PDB" /Gd /TP C:\USERS\DYNAMITOS5\DOCUMENTS\CUDA\MAGIC THE HACKENING\GAMEENGINE\RAWMODEL.CPP
^C:\USERS\DYNAMITOS5\DOCUMENTS\CUDA\MAGIC THE HACKENING\GAMEENGINE\RENDERER.CPP
/c /ZI /nologo /W3 /WX- /sdl /Od /D _MBCS /D _CRT_SECURE_NO_WARNINGS /D _MBCS /Gm /EHsc /RTC1 /MDd /GS /fp:precise /Zc:wchar_t /Zc:forScope /Zc:inline /Fo"X64\DEBUG\\" /Fd"X64\DEBUG\VC140.PDB" /Gd /TP C:\USERS\DYNAMITOS5\DOCUMENTS\CUDA\MAGIC THE HACKENING\GAMEENGINE\RENDERER.CPP
^C:\USERS\DYNAMITOS5\DOCUMENTS\CUDA\MAGIC THE HACKENING\GAMEENGINE\SHADER.CPP
/c /ZI /nologo /W3 /WX- /sdl /Od /D _MBCS /D _CRT_SECURE_NO_WARNINGS /D _MBCS /Gm /EHsc /RTC1 /MDd /GS /fp:precise /Zc:wchar_t /Zc:forScope /Zc:inline /Fo"X64\DEBUG\\" /Fd"X64\DEBUG\VC140.PDB" /Gd /TP C:\USERS\DYNAMITOS5\DOCUMENTS\CUDA\MAGIC THE HACKENING\GAMEENGINE\SHADER.CPP
^C:\USERS\DYNAMITOS5\DOCUMENTS\CUDA\MAGIC THE HACKENING\GAMEENGINE\SKELETON.CPP
/c /ZI /nologo /W3 /WX- /sdl /Od /D _MBCS /D _CRT_SECURE_NO_WARNINGS /D _MBCS /Gm /EHsc /RTC1 /MDd /GS /fp:precise /Zc:wchar_t /Zc:forScope /Zc:inline /Fo"X64\DEBUG\\" /Fd"X64\DEBUG\VC140.PDB" /Gd /TP C:\USERS\DYNAMITOS5\DOCUMENTS\CUDA\MAGIC THE HACKENING\GAMEENGINE\SKELETON.CPP
^C:\USERS\DYNAMITOS5\DOCUMENTS\CUDA\MAGIC THE HACKENING\GAMEENGINE\SPIDER.CPP
/c /ZI /nologo /W3 /WX- /sdl /Od /D _MBCS /D _CRT_SECURE_NO_WARNINGS /D _MBCS /Gm /EHsc /RTC1 /MDd /GS /fp:precise /Zc:wchar_t /Zc:forScope /Zc:inline /Fo"X64\DEBUG\\" /Fd"X64\DEBUG\VC140.PDB" /Gd /TP C:\USERS\DYNAMITOS5\DOCUMENTS\CUDA\MAGIC THE HACKENING\GAMEENGINE\SPIDER.CPP
^C:\USERS\DYNAMITOS5\DOCUMENTS\CUDA\MAGIC THE HACKENING\GAMEENGINE\STATUS.CPP
/c /ZI /nologo /W3 /WX- /sdl /Od /D _MBCS /D _CRT_SECURE_NO_WARNINGS /D _MBCS /Gm /EHsc /RTC1 /MDd /GS /fp:precise /Zc:wchar_t /Zc:forScope /Zc:inline /Fo"X64\DEBUG\\" /Fd"X64\DEBUG\VC140.PDB" /Gd /TP C:\USERS\DYNAMITOS5\DOCUMENTS\CUDA\MAGIC THE HACKENING\GAMEENGINE\STATUS.CPP
^C:\USERS\DYNAMITOS5\DOCUMENTS\CUDA\MAGIC THE HACKENING\GAMEENGINE\TEXMODEL.CPP
/c /ZI /nologo /W3 /WX- /sdl /Od /D _MBCS /D _CRT_SECURE_NO_WARNINGS /D _MBCS /Gm /EHsc /RTC1 /MDd /GS /fp:precise /Zc:wchar_t /Zc:forScope /Zc:inline /Fo"X64\DEBUG\\" /Fd"X64\DEBUG\VC140.PDB" /Gd /TP C:\USERS\DYNAMITOS5\DOCUMENTS\CUDA\MAGIC THE HACKENING\GAMEENGINE\TEXMODEL.CPP
^C:\USERS\DYNAMITOS5\DOCUMENTS\CUDA\MAGIC THE HACKENING\GAMEENGINE\ZOMBIE.CPP
/c /ZI /nologo /W3 /WX- /sdl /Od /D _MBCS /D _CRT_SECURE_NO_WARNINGS /D _MBCS /Gm /EHsc /RTC1 /MDd /GS /fp:precise /Zc:wchar_t /Zc:forScope /Zc:inline /Fo"X64\DEBUG\\" /Fd"X64\DEBUG\VC140.PDB" /Gd /TP C:\USERS\DYNAMITOS5\DOCUMENTS\CUDA\MAGIC THE HACKENING\GAMEENGINE\ZOMBIE.CPP
^C:\USERS\DYNAMITOS5\DOCUMENTS\CUDA\MAGIC THE HACKENING\GAMEENGINE\DRAGON.CPP
/c /ZI /nologo /W3 /WX- /sdl /Od /D _MBCS /D _CRT_SECURE_NO_WARNINGS /D _MBCS /Gm /EHsc /RTC1 /MDd /GS /fp:precise /Zc:wchar_t /Zc:forScope /Zc:inline /Fo"X64\DEBUG\\" /Fd"X64\DEBUG\VC140.PDB" /Gd /TP C:\USERS\DYNAMITOS5\DOCUMENTS\CUDA\MAGIC THE HACKENING\GAMEENGINE\DRAGON.CPP
^C:\USERS\DYNAMITOS5\DOCUMENTS\CUDA\MAGIC THE HACKENING\GAMEENGINE\SPELL.CPP
/c /ZI /nologo /W3 /WX- /sdl /Od /D _MBCS /D _CRT_SECURE_NO_WARNINGS /D _MBCS /Gm /EHsc /RTC1 /MDd /GS /fp:precise /Zc:wchar_t /Zc:forScope /Zc:inline /Fo"X64\DEBUG\\" /Fd"X64\DEBUG\VC140.PDB" /Gd /TP C:\USERS\DYNAMITOS5\DOCUMENTS\CUDA\MAGIC THE HACKENING\GAMEENGINE\SPELL.CPP
^C:\USERS\DYNAMITOS5\DOCUMENTS\CUDA\MAGIC THE HACKENING\GAMEENGINE\ELEMENT.CPP
/c /ZI /nologo /W3 /WX- /sdl /Od /D _MBCS /D _CRT_SECURE_NO_WARNINGS /D _MBCS /Gm /EHsc /RTC1 /MDd /GS /fp:precise /Zc:wchar_t /Zc:forScope /Zc:inline /Fo"X64\DEBUG\\" /Fd"X64\DEBUG\VC140.PDB" /Gd /TP C:\USERS\DYNAMITOS5\DOCUMENTS\CUDA\MAGIC THE HACKENING\GAMEENGINE\ELEMENT.CPP
