^C:\USERS\DYNAMITOS5\DOCUMENTS\CUDA\MAGIC THE HACKENING\GAMEENGINE\X64\DEBUG\CAM.OBJ|C:\USERS\DYNAMITOS5\DOCUMENTS\CUDA\MAGIC THE HACKENING\GAMEENGINE\X64\DEBUG\DATA.OBJ|C:\USERS\DYNAMITOS5\DOCUMENTS\CUDA\MAGIC THE HACKENING\GAMEENGINE\X64\DEBUG\DRAGON.OBJ|C:\USERS\DYNAMITOS5\DOCUMENTS\CUDA\MAGIC THE HACKENING\GAMEENGINE\X64\DEBUG\ELEMENT.OBJ|C:\USERS\DYNAMITOS5\DOCUMENTS\CUDA\MAGIC THE HACKENING\GAMEENGINE\X64\DEBUG\ENTITY.OBJ|C:\USERS\DYNAMITOS5\DOCUMENTS\CUDA\MAGIC THE HACKENING\GAMEENGINE\X64\DEBUG\ENTITYMOB.OBJ|C:\USERS\DYNAMITOS5\DOCUMENTS\CUDA\MAGIC THE HACKENING\GAMEENGINE\X64\DEBUG\ENTITYRENDERER.OBJ|C:\USERS\DYNAMITOS5\DOCUMENTS\CUDA\MAGIC THE HACKENING\GAMEENGINE\X64\DEBUG\ENTITYSHADER.OBJ|C:\USERS\DYNAMITOS5\DOCUMENTS\CUDA\MAGIC THE HACKENING\GAMEENGINE\X64\DEBUG\LOADER.OBJ|C:\USERS\DYNAMITOS5\DOCUMENTS\CUDA\MAGIC THE HACKENING\GAMEENGINE\X64\DEBUG\MAIN.OBJ|C:\USERS\DYNAMITOS5\DOCUMENTS\CUDA\MAGIC THE HACKENING\GAMEENGINE\X64\DEBUG\MODELTEX.OBJ|C:\USERS\DYNAMITOS5\DOCUMENTS\CUDA\MAGIC THE HACKENING\GAMEENGINE\X64\DEBUG\PARTICLERENDERER.OBJ|C:\USERS\DYNAMITOS5\DOCUMENTS\CUDA\MAGIC THE HACKENING\GAMEENGINE\X64\DEBUG\PARTICLESHADER.OBJ|C:\USERS\DYNAMITOS5\DOCUMENTS\CUDA\MAGIC THE HACKENING\GAMEENGINE\X64\DEBUG\PLAYER.OBJ|C:\USERS\DYNAMITOS5\DOCUMENTS\CUDA\MAGIC THE HACKENING\GAMEENGINE\X64\DEBUG\RAWMODEL.OBJ|C:\USERS\DYNAMITOS5\DOCUMENTS\CUDA\MAGIC THE HACKENING\GAMEENGINE\X64\DEBUG\RENDERER.OBJ|C:\USERS\DYNAMITOS5\DOCUMENTS\CUDA\MAGIC THE HACKENING\GAMEENGINE\X64\DEBUG\SHADER.OBJ|C:\USERS\DYNAMITOS5\DOCUMENTS\CUDA\MAGIC THE HACKENING\GAMEENGINE\X64\DEBUG\SKELETON.OBJ|C:\USERS\DYNAMITOS5\DOCUMENTS\CUDA\MAGIC THE HACKENING\GAMEENGINE\X64\DEBUG\SPELL.OBJ|C:\USERS\DYNAMITOS5\DOCUMENTS\CUDA\MAGIC THE HACKENING\GAMEENGINE\X64\DEBUG\SPIDER.OBJ|C:\USERS\DYNAMITOS5\DOCUMENTS\CUDA\MAGIC THE HACKENING\GAMEENGINE\X64\DEBUG\STATUS.OBJ|C:\USERS\DYNAMITOS5\DOCUMENTS\CUDA\MAGIC THE HACKENING\GAMEENGINE\X64\DEBUG\TEXMODEL.OBJ|C:\USERS\DYNAMITOS5\DOCUMENTS\CUDA\MAGIC THE HACKENING\GAMEENGINE\X64\DEBUG\ZOMBIE.OBJ
C:\USERS\DYNAMITOS5\DOCUMENTS\CUDA\MAGIC THE HACKENING\X64\DEBUG\GAMEENGINE.ILK
C:\USERS\DYNAMITOS5\DOCUMENTS\CUDA\MAGIC THE HACKENING\X64\DEBUG\GAMEENGINE.EXE
C:\USERS\DYNAMITOS5\DOCUMENTS\CUDA\MAGIC THE HACKENING\X64\DEBUG\GAMEENGINE.PDB
